{
  "type": "service_account",
  "project_id": "techwiz4-79ba4",
  "private_key_id": "f8c90c00084c2cb0cb9396ba8a515b2ab8b0d107",
  "private_key": "-----BEGIN PRIVATE KEY-----\nMIIEvQIBADANBgkqhkiG9w0BAQEFAASCBKcwggSjAgEAAoIBAQCypS/kvGBAD+KV\ncGqjCwiL/c1Fi4hiUFHj/umbVFaVrgfaDzUe2UcusQmDyH+chw+hXojgTQz4qcpn\nikmnJXkfQv3UkJUaZqru85STPqPOXK3i9q+W+i4Ow/oS4KhEwmtEaeqx7WJV9bYX\n+IHOd8v7Mdxf4uApUH4JDnZhRHyAn0EUZejjovVVZe1NMHwgzQt5JwsWSYXAG0Z1\ntxOIkE64DuKro0eVhR8ONafJo+T/ymiS7X9OvDyHqXfeIS137WOKUUJ60Qt9cFMn\nRcpqzRdjEzMLuJFY1TEMWcZnNyicf1Mxgfr/9rVq0VHoz7QPE2AMtREYSCxbVF8w\nTgnN4NRvAgMBAAECggEAC/1fMgRcl2AZjnsNhSTT7YVatgyv2h1W6azto9Gsv/3+\no+l6YLgneWBDabdWrTw5VdTA7gDt2nCW140l9VRkBS+bVp1fjHaQiVoKwjkliE+b\nEg0JauIenjoT+hle4cKErYJIUKnEfE1x67jviVpr8898YWkaL1uqIdR5KH0OuBkb\nFUGe6NDwnJaV/kUKuF58O69OpnWhFd6zw2kpOkNIrxlRwzQbKNBg9oRbXDc/mIju\n9Zi2vcYXkHqZBOHOwgH/x/dC97S53v1NchNIiSnb5sZ+dqrNnIyS9OB2egUO0kl+\nFV43l3Ae+A8Veyl8Tst0YBQj3iL3RFQoFWQgq62C3QKBgQD6m4TzOS3SaW9I+tVR\nZWQMIMnnR6Xo+rs8fGVbGVtquP5pTDhUUz8eQHIMKSK5XsO+z+7NMur/NqxSlrjd\ntLcnD7H6eAKcefgnLxrhGlweDk9n24qSkaP9+EsrISnk9XllIiJ7s8v/kCzIlLRn\n2QuxTkF8Jy89vbLh2x+tJUfGmwKBgQC2fULYXW+6VOsr4bvenAcJwNzQl6bArnTA\nQULInm/DwmsDzdV/EF0BeqmgxgnPTf/pfaM2UH/iDVHqnOL+FlaFd0XqoNd6wfuB\n8LvMRlIBwzVjsj6u0U74JutJYoodtscM8bOowdaV1SsvA6yDOXLZ3pPx7pNHEKu8\n+TXO5ALcvQKBgEKTAfSjIfsdq0SV7glbiAJ4y2o3bGnCAe+FlF9pExH85wkOCIDO\nRJxCvolgfCsGc7XDA0tb1XXLDmg6Rg4PrgAgeUVykC8Fb9jo+JkIKaSKZKnQdrWN\nHyWeyklA3CJI2+Dz+nkmQHE52cvHRU25KRQHF/plZnVeaaD6VyXmG3U1AoGBAJhp\nL33jM6Assij5I9389AfaUtHIBpYgXhP/rVY+tNuLMbOAopG3yeWlW6ySGblQzK5m\npvyC6PuT4lmO5CoP3/0iK3uVD8JP5s2UkFRAWtdsANgeEyoQV+L7JkEpEm9UqxQN\nfd4w3hZPbfybFeaXAWwi7+78MXcF3lk6zgzX8+gFAoGALS1QfBXbhK8RmV/Df8AI\nSOJVBOsVodRQL3GPgN/bb3Ze6gmAFf1uywAa5yfIFIiC/qnHcX5rQeMrAnUesMHW\nR+mAjy7bIbOP1hTQ/Y+qLI7o/qqJt6uAbGhmSAWXHkiZDsSl/nRxR/W1FvltRayK\nLzDw10bocw5521xvEEgRVl4=\n-----END PRIVATE KEY-----\n",
  "client_email": "firebase-adminsdk-tnjlb@techwiz4-79ba4.iam.gserviceaccount.com",
  "client_id": "105077523865357948598",
  "auth_uri": "https://accounts.google.com/o/oauth2/auth",
  "token_uri": "https://oauth2.googleapis.com/token",
  "auth_provider_x509_cert_url": "https://www.googleapis.com/oauth2/v1/certs",
  "client_x509_cert_url": "https://www.googleapis.com/robot/v1/metadata/x509/firebase-adminsdk-tnjlb%40techwiz4-79ba4.iam.gserviceaccount.com",
  "universe_domain": "googleapis.com"
}
